{"screen":"Adjustment Line Item List Screen - OC Spend Management","cacheable":false,"page":{"totalRecords":134,"pageNumber":1,"sortInfo":"lineItemType,ASCENDING","totalPages":6,"pageSize":25,"filters":""},"list":[{"displayName":{"displayValue":"Expense","inputValue":"Expense","link":false},"redLineAdjustment":{"displayValue":"","inputValue":"","link":false},"link":false,"expenseTotalGrossAmount":{"displayValue":"0.00 USD","inputValue":"0","link":false},"expenseTotalInitialAmount":{"displayValue":"0.00 USD","inputValue":"0","link":false},"redLineTotal":{"displayValue":"5,725.48 USD","inputValue":"5,725.48","link":false},"feeTotalAdjustmentAmount":{"displayValue":"0.00 USD","inputValue":"0","link":false},"feeTotalGrossAmount":{"displayValue":"28,627.40 USD","inputValue":"28,627.4","link":false},"lineItemType":{"displayValue":"Expense","inputValue":"2","link":false},"lineItemDate":{"displayValue":"09\/20\/2018","inputValue":"2018-09-20 14:17:06.21","link":false},"id":2,"idForTrackHistory":{},"feeTotalInitialAmount":{"displayValue":"28,627.40 USD","inputValue":"28,627.4","link":false},"expenseTotalAdjustmentAmount":{"displayValue":"0.00 USD","inputValue":"0","link":false}},{"displayName":{"displayValue":"Expense","inputValue":"Expense","link":false},"redLineAdjustment":{"displayValue":"","inputValue":"","link":false},"link":false,"expenseTotalGrossAmount":{"displayValue":"0.00 USD","inputValue":"0","link":false},"expenseTotalInitialAmount":{"displayValue":"0.00 USD","inputValue":"0","link":false},"redLineTotal":{"displayValue":"21,276.16 USD","inputValue":"21,276.16","link":false},"feeTotalAdjustmentAmount":{"displayValue":"0.00 USD","inputValue":"0","link":false},"feeTotalGrossAmount":{"displayValue":"106,380.80 USD","inputValue":"106,380.8","link":false},"lineItemType":{"displayValue":"Expense","inputValue":"2","link":false},"lineItemDate":{"displayValue":"09\/20\/2018","inputValue":"2018-09-20 14:27:01.697","link":false},"id":4,"idForTrackHistory":{},"feeTotalInitialAmount":{"displayValue":"106,380.80 USD","inputValue":"106,380.8","link":false},"expenseTotalAdjustmentAmount":{"displayValue":"0.00 USD","inputValue":"0","link":false}},{"displayName":{"displayValue":"Expense","inputValue":"Expense","link":false},"redLineAdjustment":{"displayValue":"","inputValue":"","link":false},"link":false,"expenseTotalGrossAmount":{"displayValue":"128.90 USD","inputValue":"128.9","link":false},"expenseTotalInitialAmount":{"displayValue":"128.90 USD","inputValue":"128.9","link":false},"redLineTotal":{"displayValue":"128.90 USD","inputValue":"128.9","link":false},"feeTotalAdjustmentAmount":{"displayValue":"0.00 USD","inputValue":"0","link":false},"feeTotalGrossAmount":{"displayValue":"136,641.20 USD","inputValue":"136,641.2","link":false},"lineItemType":{"displayValue":"Expense","inputValue":"2","link":false},"lineItemDate":{"displayValue":"11\/09\/2018","inputValue":"2018-11-09 22:27:08.393","link":false},"id":20,"idForTrackHistory":{},"feeTotalInitialAmount":{"displayValue":"136,641.20 USD","inputValue":"136,641.2","link":false},"expenseTotalAdjustmentAmount":{"displayValue":"0.00 USD","inputValue":"0","link":false}},{"displayName":{"displayValue":"Expense","inputValue":"Expense","link":false},"redLineAdjustment":{"displayValue":"","inputValue":"","link":false},"link":false,"expenseTotalGrossAmount":{"displayValue":"1,523.10 USD","inputValue":"1,523.1","link":false},"expenseTotalInitialAmount":{"displayValue":"1,523.10 USD","inputValue":"1,523.1","link":false},"redLineTotal":{"displayValue":"1,523.10 USD","inputValue":"1,523.1","link":false},"feeTotalAdjustmentAmount":{"displayValue":"0.00 USD","inputValue":"0","link":false},"feeTotalGrossAmount":{"displayValue":"163,548.46 USD","inputValue":"163,548.46","link":false},"lineItemType":{"displayValue":"Expense","inputValue":"2","link":false},"lineItemDate":{"displayValue":"11\/21\/2018","inputValue":"2018-11-21 23:02:04.603","link":false},"id":27,"idForTrackHistory":{},"feeTotalInitialAmount":{"displayValue":"163,548.46 USD","inputValue":"163,548.46","link":false},"expenseTotalAdjustmentAmount":{"displayValue":"0.00 USD","inputValue":"0","link":false}},{"displayName":{"displayValue":"Expense","inputValue":"Expense","link":false},"redLineAdjustment":{"displayValue":"","inputValue":"","link":false},"link":false,"expenseTotalGrossAmount":{"displayValue":"228.30 USD","inputValue":"228.3","link":false},"expenseTotalInitialAmount":{"displayValue":"228.30 USD","inputValue":"228.3","link":false},"redLineTotal":{"displayValue":"228.30 USD","inputValue":"228.3","link":false},"feeTotalAdjustmentAmount":{"displayValue":"0.00 USD","inputValue":"0","link":false},"feeTotalGrossAmount":{"displayValue":"35,064.60 USD","inputValue":"35,064.6","link":false},"lineItemType":{"displayValue":"Expense","inputValue":"2","link":false},"lineItemDate":{"displayValue":"12\/07\/2018","inputValue":"2018-12-07 18:22:02.187","link":false},"id":29,"idForTrackHistory":{},"feeTotalInitialAmount":{"displayValue":"35,064.60 USD","inputValue":"35,064.6","link":false},"expenseTotalAdjustmentAmount":{"displayValue":"0.00 USD","inputValue":"0","link":false}},{"displayName":{"displayValue":"Expense","inputValue":"Expense","link":false},"redLineAdjustment":{"displayValue":"","inputValue":"","link":false},"link":false,"expenseTotalGrossAmount":{"displayValue":"5,758.00 GBP","inputValue":"5,758","link":false},"expenseTotalInitialAmount":{"displayValue":"5,758.00 GBP","inputValue":"5,758","link":false},"redLineTotal":{"displayValue":"6,909.60 GBP","inputValue":"6,909.6","link":false},"feeTotalAdjustmentAmount":{"displayValue":"0.00 GBP","inputValue":"0","link":false},"feeTotalGrossAmount":{"displayValue":"61,230.80 GBP","inputValue":"61,230.8","link":false},"lineItemType":{"displayValue":"Expense","inputValue":"2","link":false},"lineItemDate":{"displayValue":"01\/31\/2019","inputValue":"2019-01-31 16:12:07.863","link":false},"id":34,"idForTrackHistory":{},"feeTotalInitialAmount":{"displayValue":"61,230.80 GBP","inputValue":"61,230.8","link":false},"expenseTotalAdjustmentAmount":{"displayValue":"0.00 GBP","inputValue":"0","link":false}},{"displayName":{"displayValue":"Expense","inputValue":"Expense","link":false},"redLineAdjustment":{"displayValue":"","inputValue":"","link":false},"link":false,"expenseTotalGrossAmount":{"displayValue":"129.80 USD","inputValue":"129.8","link":false},"expenseTotalInitialAmount":{"displayValue":"129.80 USD","inputValue":"129.8","link":false},"redLineTotal":{"displayValue":"129.80 USD","inputValue":"129.8","link":false},"feeTotalAdjustmentAmount":{"displayValue":"0.00 USD","inputValue":"0","link":false},"feeTotalGrossAmount":{"displayValue":"35,233.30 USD","inputValue":"35,233.3","link":false},"lineItemType":{"displayValue":"Expense","inputValue":"2","link":false},"lineItemDate":{"displayValue":"04\/30\/2019","inputValue":"2019-04-30 17:37:01.98","link":false},"id":43,"idForTrackHistory":{},"feeTotalInitialAmount":{"displayValue":"35,233.30 USD","inputValue":"35,233.3","link":false},"expenseTotalAdjustmentAmount":{"displayValue":"0.00 USD","inputValue":"0","link":false}},{"displayName":{"displayValue":"Expense","inputValue":"Expense","link":false},"redLineAdjustment":{"displayValue":"","inputValue":"","link":false},"link":false,"expenseTotalGrossAmount":{"displayValue":"100.00 USD","inputValue":"100","link":false},"expenseTotalInitialAmount":{"displayValue":"100.00 USD","inputValue":"100","link":false},"redLineTotal":{"displayValue":"100.00 USD","inputValue":"100","link":false},"feeTotalAdjustmentAmount":{"displayValue":"0.00 USD","inputValue":"0","link":false},"feeTotalGrossAmount":{"displayValue":"0.00 USD","inputValue":"0","link":false},"lineItemType":{"displayValue":"Expense","inputValue":"2","link":false},"lineItemDate":{"displayValue":"06\/05\/2019","inputValue":"2019-06-05 10:39:00.0","link":false},"id":58,"idForTrackHistory":{},"feeTotalInitialAmount":{"displayValue":"0.00 USD","inputValue":"0","link":false},"expenseTotalAdjustmentAmount":{"displayValue":"0.00 USD","inputValue":"0","link":false}},{"displayName":{"displayValue":"Expense","inputValue":"Expense","link":false},"redLineAdjustment":{"displayValue":"","inputValue":"","link":false},"link":false,"expenseTotalGrossAmount":{"displayValue":"1,200.00 USD","inputValue":"1,200","link":false},"expenseTotalInitialAmount":{"displayValue":"1,200.00 USD","inputValue":"1,200","link":false},"redLineTotal":{"displayValue":"2,400.00 USD","inputValue":"2,400","link":false},"feeTotalAdjustmentAmount":{"displayValue":"0.00 USD","inputValue":"0","link":false},"feeTotalGrossAmount":{"displayValue":"0.00 USD","inputValue":"0","link":false},"lineItemType":{"displayValue":"Expense","inputValue":"2","link":false},"lineItemDate":{"displayValue":"07\/04\/2019","inputValue":"2019-07-04 11:46:21.85","link":false},"id":61,"idForTrackHistory":{},"feeTotalInitialAmount":{"displayValue":"0.00 USD","inputValue":"0","link":false},"expenseTotalAdjustmentAmount":{"displayValue":"0.00 USD","inputValue":"0","link":false}},{"displayName":{"displayValue":"Expense","inputValue":"Expense","link":false},"redLineAdjustment":{"displayValue":"","inputValue":"","link":false},"link":false,"expenseTotalGrossAmount":{"displayValue":"300.00 USD","inputValue":"300","link":false},"expenseTotalInitialAmount":{"displayValue":"300.00 USD","inputValue":"300","link":false},"redLineTotal":{"displayValue":"300.00 USD","inputValue":"300","link":false},"feeTotalAdjustmentAmount":{"displayValue":"0.00 USD","inputValue":"0","link":false},"feeTotalGrossAmount":{"displayValue":"0.00 USD","inputValue":"0","link":false},"lineItemType":{"displayValue":"Expense","inputValue":"2","link":false},"lineItemDate":{"displayValue":"06\/28\/2019","inputValue":"2019-06-28 05:17:00.0","link":false},"id":66,"idForTrackHistory":{},"feeTotalInitialAmount":{"displayValue":"0.00 USD","inputValue":"0","link":false},"expenseTotalAdjustmentAmount":{"displayValue":"0.00 USD","inputValue":"0","link":false}},{"displayName":{"displayValue":"Expense","inputValue":"Expense","link":false},"redLineAdjustment":{"displayValue":"","inputValue":"","link":false},"link":false,"expenseTotalGrossAmount":{"displayValue":"200.00 USD","inputValue":"200","link":false},"expenseTotalInitialAmount":{"displayValue":"200.00 USD","inputValue":"200","link":false},"redLineTotal":{"displayValue":"200.00 USD","inputValue":"200","link":false},"feeTotalAdjustmentAmount":{"displayValue":"0.00 USD","inputValue":"0","link":false},"feeTotalGrossAmount":{"displayValue":"0.00 USD","inputValue":"0","link":false},"lineItemType":{"displayValue":"Expense","inputValue":"2","link":false},"lineItemDate":{"displayValue":"06\/25\/2019","inputValue":"2019-06-25 06:17:00.0","link":false},"id":68,"idForTrackHistory":{},"feeTotalInitialAmount":{"displayValue":"0.00 USD","inputValue":"0","link":false},"expenseTotalAdjustmentAmount":{"displayValue":"0.00 USD","inputValue":"0","link":false}},{"displayName":{"displayValue":"Expense","inputValue":"Expense","link":false},"redLineAdjustment":{"displayValue":"","inputValue":"","link":false},"link":false,"expenseTotalGrossAmount":{"displayValue":"300.00 USD","inputValue":"300","link":false},"expenseTotalInitialAmount":{"displayValue":"300.00 USD","inputValue":"300","link":false},"redLineTotal":{"displayValue":"300.00 USD","inputValue":"300","link":false},"feeTotalAdjustmentAmount":{"displayValue":"0.00 USD","inputValue":"0","link":false},"feeTotalGrossAmount":{"displayValue":"0.00 USD","inputValue":"0","link":false},"lineItemType":{"displayValue":"Expense","inputValue":"2","link":false},"lineItemDate":{"displayValue":"06\/24\/2019","inputValue":"2019-06-24 06:30:00.0","link":false},"id":70,"idForTrackHistory":{},"feeTotalInitialAmount":{"displayValue":"0.00 USD","inputValue":"0","link":false},"expenseTotalAdjustmentAmount":{"displayValue":"0.00 USD","inputValue":"0","link":false}},{"displayName":{"displayValue":"Expense","inputValue":"Expense","link":false},"redLineAdjustment":{"displayValue":"","inputValue":"","link":false},"link":false,"expenseTotalGrossAmount":{"displayValue":"201.00 USD","inputValue":"201","link":false},"expenseTotalInitialAmount":{"displayValue":"201.00 USD","inputValue":"201","link":false},"redLineTotal":{"displayValue":"201.00 USD","inputValue":"201","link":false},"feeTotalAdjustmentAmount":{"displayValue":"0.00 USD","inputValue":"0","link":false},"feeTotalGrossAmount":{"displayValue":"0.00 USD","inputValue":"0","link":false},"lineItemType":{"displayValue":"Expense","inputValue":"2","link":false},"lineItemDate":{"displayValue":"06\/25\/2019","inputValue":"2019-06-25 06:08:00.0","link":false},"id":73,"idForTrackHistory":{},"feeTotalInitialAmount":{"displayValue":"0.00 USD","inputValue":"0","link":false},"expenseTotalAdjustmentAmount":{"displayValue":"0.00 USD","inputValue":"0","link":false}},{"displayName":{"displayValue":"Expense","inputValue":"Expense","link":false},"redLineAdjustment":{"displayValue":"","inputValue":"","link":false},"link":false,"expenseTotalGrossAmount":{"displayValue":"1,200.00 USD","inputValue":"1,200","link":false},"expenseTotalInitialAmount":{"displayValue":"1,200.00 USD","inputValue":"1,200","link":false},"redLineTotal":{"displayValue":"1,200.00 USD","inputValue":"1,200","link":false},"feeTotalAdjustmentAmount":{"displayValue":"0.00 USD","inputValue":"0","link":false},"feeTotalGrossAmount":{"displayValue":"0.00 USD","inputValue":"0","link":false},"lineItemType":{"displayValue":"Expense","inputValue":"2","link":false},"lineItemDate":{"displayValue":"07\/06\/2019","inputValue":"2019-07-06 09:17:03.003","link":false},"id":76,"idForTrackHistory":{},"feeTotalInitialAmount":{"displayValue":"0.00 USD","inputValue":"0","link":false},"expenseTotalAdjustmentAmount":{"displayValue":"0.00 USD","inputValue":"0","link":false}},{"displayName":{"displayValue":"Expense","inputValue":"Expense","link":false},"redLineAdjustment":{"displayValue":"","inputValue":"","link":false},"link":false,"expenseTotalGrossAmount":{"displayValue":"1,500.00 USD","inputValue":"1,500","link":false},"expenseTotalInitialAmount":{"displayValue":"1,500.00 USD","inputValue":"1,500","link":false},"redLineTotal":{"displayValue":"1,500.00 USD","inputValue":"1,500","link":false},"feeTotalAdjustmentAmount":{"displayValue":"0.00 USD","inputValue":"0","link":false},"feeTotalGrossAmount":{"displayValue":"1,500.00 USD","inputValue":"1,500","link":false},"lineItemType":{"displayValue":"Expense","inputValue":"2","link":false},"lineItemDate":{"displayValue":"06\/01\/2019","inputValue":"2019-06-01 09:59:00.0","link":false},"id":78,"idForTrackHistory":{},"feeTotalInitialAmount":{"displayValue":"1,500.00 USD","inputValue":"1,500","link":false},"expenseTotalAdjustmentAmount":{"displayValue":"0.00 USD","inputValue":"0","link":false}},{"displayName":{"displayValue":"Expense","inputValue":"Expense","link":false},"redLineAdjustment":{"displayValue":"0.00 USD","inputValue":"0","link":false},"link":false,"expenseTotalGrossAmount":{"displayValue":"1,400.00 USD","inputValue":"1,400","link":false},"expenseTotalInitialAmount":{"displayValue":"1,400.00 USD","inputValue":"1,400","link":false},"redLineTotal":{"displayValue":"0.00 USD","inputValue":"0","link":false},"feeTotalAdjustmentAmount":{"displayValue":"0.00 USD","inputValue":"0","link":false},"feeTotalGrossAmount":{"displayValue":"0.00 USD","inputValue":"0","link":false},"lineItemType":{"displayValue":"Expense","inputValue":"2","link":false},"lineItemDate":{"displayValue":"06\/02\/2019","inputValue":"2019-06-02 10:11:00.0","link":false},"id":79,"idForTrackHistory":{},"feeTotalInitialAmount":{"displayValue":"0.00 USD","inputValue":"0","link":false},"expenseTotalAdjustmentAmount":{"displayValue":"(1,400.00) USD","inputValue":"-1,400","link":false}},{"displayName":{"displayValue":"Expense","inputValue":"Expense","link":false},"redLineAdjustment":{"displayValue":"","inputValue":"","link":false},"link":false,"expenseTotalGrossAmount":{"displayValue":"1,200.00 USD","inputValue":"1,200","link":false},"expenseTotalInitialAmount":{"displayValue":"1,200.00 USD","inputValue":"1,200","link":false},"redLineTotal":{"displayValue":"2,400.00 USD","inputValue":"2,400","link":false},"feeTotalAdjustmentAmount":{"displayValue":"0.00 USD","inputValue":"0","link":false},"feeTotalGrossAmount":{"displayValue":"0.00 USD","inputValue":"0","link":false},"lineItemType":{"displayValue":"Expense","inputValue":"2","link":false},"lineItemDate":{"displayValue":"07\/06\/2019","inputValue":"2019-07-06 18:02:02.98","link":false},"id":82,"idForTrackHistory":{},"feeTotalInitialAmount":{"displayValue":"0.00 USD","inputValue":"0","link":false},"expenseTotalAdjustmentAmount":{"displayValue":"0.00 USD","inputValue":"0","link":false}},{"displayName":{"displayValue":"Expense","inputValue":"Expense","link":false},"redLineAdjustment":{"displayValue":"","inputValue":"","link":false},"link":false,"expenseTotalGrossAmount":{"displayValue":"200.00 USD","inputValue":"200","link":false},"expenseTotalInitialAmount":{"displayValue":"200.00 USD","inputValue":"200","link":false},"redLineTotal":{"displayValue":"200.00 USD","inputValue":"200","link":false},"feeTotalAdjustmentAmount":{"displayValue":"0.00 USD","inputValue":"0","link":false},"feeTotalGrossAmount":{"displayValue":"700.00 USD","inputValue":"700","link":false},"lineItemType":{"displayValue":"Expense","inputValue":"2","link":false},"lineItemDate":{"displayValue":"06\/24\/2019","inputValue":"2019-06-24 07:34:00.0","link":false},"id":89,"idForTrackHistory":{},"feeTotalInitialAmount":{"displayValue":"700.00 USD","inputValue":"700","link":false},"expenseTotalAdjustmentAmount":{"displayValue":"0.00 USD","inputValue":"0","link":false}},{"displayName":{"displayValue":"Fee","inputValue":"Fee","link":false},"redLineAdjustment":{"displayValue":"","inputValue":"","link":false},"link":false,"expenseTotalGrossAmount":{"displayValue":"0.00 USD","inputValue":"0","link":false},"expenseTotalInitialAmount":{"displayValue":"0.00 USD","inputValue":"0","link":false},"redLineTotal":{"displayValue":"28,627.40 USD","inputValue":"28,627.4","link":false},"feeTotalAdjustmentAmount":{"displayValue":"0.00 USD","inputValue":"0","link":false},"feeTotalGrossAmount":{"displayValue":"28,627.40 USD","inputValue":"28,627.4","link":false},"lineItemType":{"displayValue":"Fee","inputValue":"1","link":false},"lineItemDate":{"displayValue":"09\/20\/2018","inputValue":"2018-09-20 14:17:06.21","link":false},"id":1,"idForTrackHistory":{},"feeTotalInitialAmount":{"displayValue":"28,627.40 USD","inputValue":"28,627.4","link":false},"expenseTotalAdjustmentAmount":{"displayValue":"0.00 USD","inputValue":"0","link":false}},{"displayName":{"displayValue":"Fee","inputValue":"Fee","link":false},"redLineAdjustment":{"displayValue":"","inputValue":"","link":false},"link":false,"expenseTotalGrossAmount":{"displayValue":"0.00 USD","inputValue":"0","link":false},"expenseTotalInitialAmount":{"displayValue":"0.00 USD","inputValue":"0","link":false},"redLineTotal":{"displayValue":"106,380.80 USD","inputValue":"106,380.8","link":false},"feeTotalAdjustmentAmount":{"displayValue":"0.00 USD","inputValue":"0","link":false},"feeTotalGrossAmount":{"displayValue":"106,380.80 USD","inputValue":"106,380.8","link":false},"lineItemType":{"displayValue":"Fee","inputValue":"1","link":false},"lineItemDate":{"displayValue":"09\/20\/2018","inputValue":"2018-09-20 14:27:01.697","link":false},"id":3,"idForTrackHistory":{},"feeTotalInitialAmount":{"displayValue":"106,380.80 USD","inputValue":"106,380.8","link":false},"expenseTotalAdjustmentAmount":{"displayValue":"0.00 USD","inputValue":"0","link":false}},{"displayName":{"displayValue":"Fee","inputValue":"Fee","link":false},"redLineAdjustment":{"displayValue":"","inputValue":"","link":false},"link":false,"expenseTotalGrossAmount":{"displayValue":"0.00 GBP","inputValue":"0","link":false},"expenseTotalInitialAmount":{"displayValue":"0.00 GBP","inputValue":"0","link":false},"redLineTotal":{"displayValue":"34,352.88 GBP","inputValue":"34,352.88","link":false},"feeTotalAdjustmentAmount":{"displayValue":"0.00 GBP","inputValue":"0","link":false},"feeTotalGrossAmount":{"displayValue":"28,627.40 GBP","inputValue":"28,627.4","link":false},"lineItemType":{"displayValue":"Fee","inputValue":"1","link":false},"lineItemDate":{"displayValue":"09\/20\/2018","inputValue":"2018-09-20 16:57:02.797","link":false},"id":5,"idForTrackHistory":{},"feeTotalInitialAmount":{"displayValue":"28,627.40 GBP","inputValue":"28,627.4","link":false},"expenseTotalAdjustmentAmount":{"displayValue":"0.00 GBP","inputValue":"0","link":false}},{"displayName":{"displayValue":"Fee","inputValue":"Fee","link":false},"redLineAdjustment":{"displayValue":"","inputValue":"","link":false},"link":false,"expenseTotalGrossAmount":{"displayValue":"0.00 GBP","inputValue":"0","link":false},"expenseTotalInitialAmount":{"displayValue":"0.00 GBP","inputValue":"0","link":false},"redLineTotal":{"displayValue":"127,656.96 GBP","inputValue":"127,656.96","link":false},"feeTotalAdjustmentAmount":{"displayValue":"0.00 GBP","inputValue":"0","link":false},"feeTotalGrossAmount":{"displayValue":"106,380.80 GBP","inputValue":"106,380.8","link":false},"lineItemType":{"displayValue":"Fee","inputValue":"1","link":false},"lineItemDate":{"displayValue":"09\/20\/2018","inputValue":"2018-09-20 17:12:01.593","link":false},"id":6,"idForTrackHistory":{},"feeTotalInitialAmount":{"displayValue":"106,380.80 GBP","inputValue":"106,380.8","link":false},"expenseTotalAdjustmentAmount":{"displayValue":"0.00 GBP","inputValue":"0","link":false}},{"displayName":{"displayValue":"Fee","inputValue":"Fee","link":false},"redLineAdjustment":{"displayValue":"","inputValue":"","link":false},"link":false,"expenseTotalGrossAmount":{"displayValue":"0.00 GBP","inputValue":"0","link":false},"expenseTotalInitialAmount":{"displayValue":"0.00 GBP","inputValue":"0","link":false},"redLineTotal":{"displayValue":"3,714.24 GBP","inputValue":"3,714.24","link":false},"feeTotalAdjustmentAmount":{"displayValue":"0.00 GBP","inputValue":"0","link":false},"feeTotalGrossAmount":{"displayValue":"3,095.20 GBP","inputValue":"3,095.2","link":false},"lineItemType":{"displayValue":"Fee","inputValue":"1","link":false},"lineItemDate":{"displayValue":"09\/27\/2018","inputValue":"2018-09-27 13:12:03.973","link":false},"id":7,"idForTrackHistory":{},"feeTotalInitialAmount":{"displayValue":"3,095.20 GBP","inputValue":"3,095.2","link":false},"expenseTotalAdjustmentAmount":{"displayValue":"0.00 GBP","inputValue":"0","link":false}},{"displayName":{"displayValue":"Fee","inputValue":"Fee","link":false},"redLineAdjustment":{"displayValue":"","inputValue":"","link":false},"link":false,"expenseTotalGrossAmount":{"displayValue":"0.00 GBP","inputValue":"0","link":false},"expenseTotalInitialAmount":{"displayValue":"0.00 GBP","inputValue":"0","link":false},"redLineTotal":{"displayValue":"2,573.47 GBP","inputValue":"2,573.47","link":false},"feeTotalAdjustmentAmount":{"displayValue":"0.00 GBP","inputValue":"0","link":false},"feeTotalGrossAmount":{"displayValue":"2,143.40 GBP","inputValue":"2,143.4","link":false},"lineItemType":{"displayValue":"Fee","inputValue":"1","link":false},"lineItemDate":{"displayValue":"10\/02\/2018","inputValue":"2018-10-02 11:57:02.503","link":false},"id":8,"idForTrackHistory":{},"feeTotalInitialAmount":{"displayValue":"2,143.40 GBP","inputValue":"2,143.4","link":false},"expenseTotalAdjustmentAmount":{"displayValue":"0.00 GBP","inputValue":"0","link":false}},{"displayName":{"displayValue":"Fee","inputValue":"Fee","link":false},"redLineAdjustment":{"displayValue":"","inputValue":"","link":false},"link":false,"expenseTotalGrossAmount":{"displayValue":"0.00 USD","inputValue":"0","link":false},"expenseTotalInitialAmount":{"displayValue":"0.00 USD","inputValue":"0","link":false},"redLineTotal":{"displayValue":"27,181.00 USD","inputValue":"27,181","link":false},"feeTotalAdjustmentAmount":{"displayValue":"0.00 USD","inputValue":"0","link":false},"feeTotalGrossAmount":{"displayValue":"27,181.00 USD","inputValue":"27,181","link":false},"lineItemType":{"displayValue":"Fee","inputValue":"1","link":false},"lineItemDate":{"displayValue":"10\/09\/2018","inputValue":"2018-10-09 23:07:02.733","link":false},"id":9,"idForTrackHistory":{},"feeTotalInitialAmount":{"displayValue":"27,181.00 USD","inputValue":"27,181","link":false},"expenseTotalAdjustmentAmount":{"displayValue":"0.00 USD","inputValue":"0","link":false}}],"version":1.0,"url":"https:\/\/gts-ey-qa\/Passport\/enduser\/listscreens\/show.json?screenName=Adjustment+Line+Item+List+Screen+-+OC+Spend+Management"}