{"screen":"Matter List - Office","cacheable":false,"page":{"totalRecords":518,"pageNumber":1,"sortInfo":"name,ASCENDING","totalPages":21,"pageSize":25,"filters":""},"list":[{"closeDate":{"displayValue":"","inputValue":"","link":false},"code":{"displayValue":"Open","inputValue":"Open","link":false},"matterNumber":{"displayValue":"USA-2019-AAP-00002","inputValue":"USA-2019-AAP-00002","link":false},"spendToDate":{"displayValue":"0.00 USD","inputValue":"0","link":false},"matterStatus":{"displayValue":"Open","inputValue":"1","link":false},"name":{"displayValue":"!advice","inputValue":"!advice","link":false},"id":200,"openDate":{"displayValue":"07\/06\/2019","inputValue":"2019-07-06 00:00:00.0","link":false},"primaryInternalContact":{"displayValue":"LA LA","inputValue":"LA LA","link":false}},{"closeDate":{"displayValue":"","inputValue":"","link":false},"code":{"displayValue":"Open","inputValue":"Open","link":false},"matterNumber":{"displayValue":"USA-2019-GCO-00006","inputValue":"USA-2019-GCO-00006","link":false},"spendToDate":{"displayValue":"","inputValue":"","link":false},"matterStatus":{"displayValue":"Open","inputValue":"1","link":false},"name":{"displayValue":"!Alloc","inputValue":"!Alloc","link":false},"id":199,"openDate":{"displayValue":"07\/06\/2019","inputValue":"2019-07-06 00:00:00.0","link":false},"primaryInternalContact":{"displayValue":"LF LF","inputValue":"LF LF","link":false}},{"closeDate":{"displayValue":"","inputValue":"","link":false},"code":{"displayValue":"Open","inputValue":"Open","link":false},"matterNumber":{"displayValue":"GLB-2019-GCO-00008","inputValue":"GLB-2019-GCO-00008","link":false},"spendToDate":{"displayValue":"","inputValue":"","link":false},"matterStatus":{"displayValue":"Open","inputValue":"1","link":false},"name":{"displayValue":"!ELMQA_Dry Run_001 - RENAME","inputValue":"!ELMQA_Dry Run_001 - RENAME","link":false},"id":78,"openDate":{"displayValue":"07\/01\/2019","inputValue":"2019-07-01 00:00:00.0","link":false},"primaryInternalContact":{"displayValue":"Pamela K Mizuno","inputValue":"Pamela K Mizuno","link":false}},{"closeDate":{"displayValue":"","inputValue":"","link":false},"code":{"displayValue":"Open","inputValue":"Open","link":false},"matterNumber":{"displayValue":"GLB-2019-GCO-00011","inputValue":"GLB-2019-GCO-00011","link":false},"spendToDate":{"displayValue":"0.00 USD","inputValue":"0","link":false},"matterStatus":{"displayValue":"Open","inputValue":"1","link":false},"name":{"displayValue":"!global-rename Nürburg","inputValue":"!global-rename Nürburg","link":false},"id":202,"openDate":{"displayValue":"07\/06\/2019","inputValue":"2019-07-06 00:00:00.0","link":false},"primaryInternalContact":{"displayValue":"Avin   Vijay","inputValue":"Avin   Vijay","link":false}},{"closeDate":{"displayValue":"","inputValue":"","link":false},"code":{"displayValue":"Open","inputValue":"Open","link":false},"matterNumber":{"displayValue":"GLB-2019-GCO-00021","inputValue":"GLB-2019-GCO-00021","link":false},"spendToDate":{"displayValue":"","inputValue":"","link":false},"matterStatus":{"displayValue":"Open","inputValue":"1","link":false},"name":{"displayValue":"!matter 1","inputValue":"!matter 1","link":false},"id":10282,"openDate":{"displayValue":"07\/17\/2019","inputValue":"2019-07-17 00:00:00.0","link":false},"primaryInternalContact":{"displayValue":"David Weintraub","inputValue":"David Weintraub","link":false}},{"closeDate":{"displayValue":"","inputValue":"","link":false},"code":{"displayValue":"Open","inputValue":"Open","link":false},"matterNumber":{"displayValue":"BEL-2019-TRN-00001","inputValue":"BEL-2019-TRN-00001","link":false},"spendToDate":{"displayValue":"","inputValue":"","link":false},"matterStatus":{"displayValue":"Open","inputValue":"1","link":false},"name":{"displayValue":"!matter 10","inputValue":"!matter 10","link":false},"id":10288,"openDate":{"displayValue":"07\/17\/2019","inputValue":"2019-07-17 00:00:00.0","link":false},"primaryInternalContact":{"displayValue":"Libiya   P","inputValue":"Libiya   P","link":false}},{"closeDate":{"displayValue":"","inputValue":"","link":false},"code":{"displayValue":"Open","inputValue":"Open","link":false},"matterNumber":{"displayValue":"GLB-2019-LIT-00037","inputValue":"GLB-2019-LIT-00037","link":false},"spendToDate":{"displayValue":"","inputValue":"","link":false},"matterStatus":{"displayValue":"Open","inputValue":"1","link":false},"name":{"displayValue":"!matter 100","inputValue":"!matter 100","link":false},"id":10307,"openDate":{"displayValue":"07\/17\/2019","inputValue":"2019-07-17 00:00:00.0","link":false},"primaryInternalContact":{"displayValue":"Pamela K Mizuno","inputValue":"Pamela K Mizuno","link":false}},{"closeDate":{"displayValue":"","inputValue":"","link":false},"code":{"displayValue":"Open","inputValue":"Open","link":false},"matterNumber":{"displayValue":"GBR-2019-REA-00001","inputValue":"GBR-2019-REA-00001","link":false},"spendToDate":{"displayValue":"","inputValue":"","link":false},"matterStatus":{"displayValue":"Open","inputValue":"1","link":false},"name":{"displayValue":"!matter 11","inputValue":"!matter 11","link":false},"id":10290,"openDate":{"displayValue":"07\/17\/2019","inputValue":"2019-07-17 00:00:00.0","link":false},"primaryInternalContact":{"displayValue":"Pamela K Mizuno","inputValue":"Pamela K Mizuno","link":false}},{"closeDate":{"displayValue":"","inputValue":"","link":false},"code":{"displayValue":"Open","inputValue":"Open","link":false},"matterNumber":{"displayValue":"GLB-2019-GCO-00022","inputValue":"GLB-2019-GCO-00022","link":false},"spendToDate":{"displayValue":"","inputValue":"","link":false},"matterStatus":{"displayValue":"Open","inputValue":"1","link":false},"name":{"displayValue":"!matter 2","inputValue":"!matter 2","link":false},"id":10283,"openDate":{"displayValue":"07\/17\/2019","inputValue":"2019-07-17 00:00:00.0","link":false},"primaryInternalContact":{"displayValue":"David Weintraub","inputValue":"David Weintraub","link":false}},{"closeDate":{"displayValue":"","inputValue":"","link":false},"code":{"displayValue":"Open","inputValue":"Open","link":false},"matterNumber":{"displayValue":"IRL-2019-LIT-00009","inputValue":"IRL-2019-LIT-00009","link":false},"spendToDate":{"displayValue":"","inputValue":"","link":false},"matterStatus":{"displayValue":"Open","inputValue":"1","link":false},"name":{"displayValue":"!matter 3","inputValue":"!matter 3","link":false},"id":10284,"openDate":{"displayValue":"07\/17\/2019","inputValue":"2019-07-17 00:00:00.0","link":false},"primaryInternalContact":{"displayValue":"David Weintraub","inputValue":"David Weintraub","link":false}},{"closeDate":{"displayValue":"","inputValue":"","link":false},"code":{"displayValue":"Open","inputValue":"Open","link":false},"matterNumber":{"displayValue":"GLB-2019-GCO-00023","inputValue":"GLB-2019-GCO-00023","link":false},"spendToDate":{"displayValue":"","inputValue":"","link":false},"matterStatus":{"displayValue":"Open","inputValue":"1","link":false},"name":{"displayValue":"!matter 4","inputValue":"!matter 4","link":false},"id":10285,"openDate":{"displayValue":"07\/17\/2019","inputValue":"2019-07-17 00:00:00.0","link":false},"primaryInternalContact":{"displayValue":"David Weintraub","inputValue":"David Weintraub","link":false}},{"closeDate":{"displayValue":"","inputValue":"","link":false},"code":{"displayValue":"Dormant","inputValue":"Dormant","link":false},"matterNumber":{"displayValue":"GLB-2019-LIT-00030","inputValue":"GLB-2019-LIT-00030","link":false},"spendToDate":{"displayValue":"","inputValue":"","link":false},"matterStatus":{"displayValue":"Dormant","inputValue":"3","link":false},"name":{"displayValue":"!matter 5","inputValue":"!matter 5","link":false},"id":10286,"openDate":{"displayValue":"07\/17\/2019","inputValue":"2019-07-17 00:00:00.0","link":false},"primaryInternalContact":{"displayValue":"Pamela K Mizuno","inputValue":"Pamela K Mizuno","link":false}},{"closeDate":{"displayValue":"","inputValue":"","link":false},"code":{"displayValue":"Open","inputValue":"Open","link":false},"matterNumber":{"displayValue":"GLB-2019-LIT-00040","inputValue":"GLB-2019-LIT-00040","link":false},"spendToDate":{"displayValue":"","inputValue":"","link":false},"matterStatus":{"displayValue":"Open","inputValue":"1","link":false},"name":{"displayValue":"!matter 501","inputValue":"!matter 501","link":false},"id":10310,"openDate":{"displayValue":"07\/17\/2019","inputValue":"2019-07-17 00:00:00.0","link":false},"primaryInternalContact":{"displayValue":"Pamela K Mizuno","inputValue":"Pamela K Mizuno","link":false}},{"closeDate":{"displayValue":"","inputValue":"","link":false},"code":{"displayValue":"Open","inputValue":"Open","link":false},"matterNumber":{"displayValue":"GLB-2019-LIT-00032","inputValue":"GLB-2019-LIT-00032","link":false},"spendToDate":{"displayValue":"","inputValue":"","link":false},"matterStatus":{"displayValue":"Open","inputValue":"1","link":false},"name":{"displayValue":"!matter 6","inputValue":"!matter 6","link":false},"id":10287,"openDate":{"displayValue":"07\/17\/2019","inputValue":"2019-07-17 00:00:00.0","link":false},"primaryInternalContact":{"displayValue":"Pamela K Mizuno","inputValue":"Pamela K Mizuno","link":false}},{"closeDate":{"displayValue":"","inputValue":"","link":false},"code":{"displayValue":"Open","inputValue":"Open","link":false},"matterNumber":{"displayValue":"EAF-2019-REA-00001","inputValue":"EAF-2019-REA-00001","link":false},"spendToDate":{"displayValue":"","inputValue":"","link":false},"matterStatus":{"displayValue":"Open","inputValue":"1","link":false},"name":{"displayValue":"!matter 700","inputValue":"!matter 700","link":false},"id":10312,"openDate":{"displayValue":"07\/17\/2019","inputValue":"2019-07-17 00:00:00.0","link":false},"primaryInternalContact":{"displayValue":"Pamela K Mizuno","inputValue":"Pamela K Mizuno","link":false}},{"closeDate":{"displayValue":"","inputValue":"","link":false},"code":{"displayValue":"Open","inputValue":"Open","link":false},"matterNumber":{"displayValue":"EAF-2019-REA-00002","inputValue":"EAF-2019-REA-00002","link":false},"spendToDate":{"displayValue":"","inputValue":"","link":false},"matterStatus":{"displayValue":"Open","inputValue":"1","link":false},"name":{"displayValue":"!matter 701","inputValue":"!matter 701","link":false},"id":10313,"openDate":{"displayValue":"07\/17\/2019","inputValue":"2019-07-17 00:00:00.0","link":false},"primaryInternalContact":{"displayValue":"Pamela K Mizuno","inputValue":"Pamela K Mizuno","link":false}},{"closeDate":{"displayValue":"","inputValue":"","link":false},"code":{"displayValue":"Open","inputValue":"Open","link":false},"matterNumber":{"displayValue":"EAF-2019-REA-00003","inputValue":"EAF-2019-REA-00003","link":false},"spendToDate":{"displayValue":"","inputValue":"","link":false},"matterStatus":{"displayValue":"Open","inputValue":"1","link":false},"name":{"displayValue":"!matter 702","inputValue":"!matter 702","link":false},"id":10321,"openDate":{"displayValue":"07\/17\/2019","inputValue":"2019-07-17 00:00:00.0","link":false},"primaryInternalContact":{"displayValue":"Pamela K Mizuno","inputValue":"Pamela K Mizuno","link":false}},{"closeDate":{"displayValue":"","inputValue":"","link":false},"code":{"displayValue":"Open","inputValue":"Open","link":false},"matterNumber":{"displayValue":"EAF-2019-REA-00004","inputValue":"EAF-2019-REA-00004","link":false},"spendToDate":{"displayValue":"","inputValue":"","link":false},"matterStatus":{"displayValue":"Open","inputValue":"1","link":false},"name":{"displayValue":"!matter 703","inputValue":"!matter 703","link":false},"id":10322,"openDate":{"displayValue":"07\/17\/2019","inputValue":"2019-07-17 00:00:00.0","link":false},"primaryInternalContact":{"displayValue":"Pamela K Mizuno","inputValue":"Pamela K Mizuno","link":false}},{"closeDate":{"displayValue":"","inputValue":"","link":false},"code":{"displayValue":"Open","inputValue":"Open","link":false},"matterNumber":{"displayValue":"EAF-2019-REA-00005","inputValue":"EAF-2019-REA-00005","link":false},"spendToDate":{"displayValue":"","inputValue":"","link":false},"matterStatus":{"displayValue":"Open","inputValue":"1","link":false},"name":{"displayValue":"!matter 704","inputValue":"!matter 704","link":false},"id":10323,"openDate":{"displayValue":"07\/17\/2019","inputValue":"2019-07-17 00:00:00.0","link":false},"primaryInternalContact":{"displayValue":"Pamela K Mizuno","inputValue":"Pamela K Mizuno","link":false}},{"closeDate":{"displayValue":"","inputValue":"","link":false},"code":{"displayValue":"Open","inputValue":"Open","link":false},"matterNumber":{"displayValue":"GLB-2019-GCO-00031","inputValue":"GLB-2019-GCO-00031","link":false},"spendToDate":{"displayValue":"","inputValue":"","link":false},"matterStatus":{"displayValue":"Open","inputValue":"1","link":false},"name":{"displayValue":"!matter001","inputValue":"!matter001","link":false},"id":10384,"openDate":{"displayValue":"07\/18\/2019","inputValue":"2019-07-18 00:00:00.0","link":false},"primaryInternalContact":{"displayValue":"Libiya   P","inputValue":"Libiya   P","link":false}},{"closeDate":{"displayValue":"","inputValue":"","link":false},"code":{"displayValue":"Open","inputValue":"Open","link":false},"matterNumber":{"displayValue":"DEU-2019-GCO-00009","inputValue":"DEU-2019-GCO-00009","link":false},"spendToDate":{"displayValue":"","inputValue":"","link":false},"matterStatus":{"displayValue":"Open","inputValue":"1","link":false},"name":{"displayValue":"!matter51","inputValue":"!matter51","link":false},"id":10304,"openDate":{"displayValue":"07\/17\/2019","inputValue":"2019-07-17 00:00:00.0","link":false},"primaryInternalContact":{"displayValue":"Pamela K Mizuno","inputValue":"Pamela K Mizuno","link":false}},{"closeDate":{"displayValue":"","inputValue":"","link":false},"code":{"displayValue":"Open","inputValue":"Open","link":false},"matterNumber":{"displayValue":"GLB-2019-LIT-00038","inputValue":"GLB-2019-LIT-00038","link":false},"spendToDate":{"displayValue":"","inputValue":"","link":false},"matterStatus":{"displayValue":"Open","inputValue":"1","link":false},"name":{"displayValue":"!matter57","inputValue":"!matter57","link":false},"id":10308,"openDate":{"displayValue":"07\/17\/2019","inputValue":"2019-07-17 00:00:00.0","link":false},"primaryInternalContact":{"displayValue":"Pamela K Mizuno","inputValue":"Pamela K Mizuno","link":false}},{"closeDate":{"displayValue":"","inputValue":"","link":false},"code":{"displayValue":"Open","inputValue":"Open","link":false},"matterNumber":{"displayValue":"GLB-2019-LIT-00036","inputValue":"GLB-2019-LIT-00036","link":false},"spendToDate":{"displayValue":"","inputValue":"","link":false},"matterStatus":{"displayValue":"Open","inputValue":"1","link":false},"name":{"displayValue":"!matter61","inputValue":"!matter61","link":false},"id":10305,"openDate":{"displayValue":"07\/17\/2019","inputValue":"2019-07-17 00:00:00.0","link":false},"primaryInternalContact":{"displayValue":"Pamela K Mizuno","inputValue":"Pamela K Mizuno","link":false}},{"closeDate":{"displayValue":"","inputValue":"","link":false},"code":{"displayValue":"Open","inputValue":"Open","link":false},"matterNumber":{"displayValue":"CAN-2019-CNT-00001","inputValue":"CAN-2019-CNT-00001","link":false},"spendToDate":{"displayValue":"","inputValue":"","link":false},"matterStatus":{"displayValue":"Open","inputValue":"1","link":false},"name":{"displayValue":"!matter62","inputValue":"!matter62","link":false},"id":10306,"openDate":{"displayValue":"07\/17\/2019","inputValue":"2019-07-17 00:00:00.0","link":false},"primaryInternalContact":{"displayValue":"Pamela K Mizuno","inputValue":"Pamela K Mizuno","link":false}},{"closeDate":{"displayValue":"","inputValue":"","link":false},"code":{"displayValue":"Open","inputValue":"Open","link":false},"matterNumber":{"displayValue":"GLB-2019-LIT-00041","inputValue":"GLB-2019-LIT-00041","link":false},"spendToDate":{"displayValue":"","inputValue":"","link":false},"matterStatus":{"displayValue":"Open","inputValue":"1","link":false},"name":{"displayValue":"!matter80","inputValue":"!matter80","link":false},"id":10324,"openDate":{"displayValue":"07\/17\/2019","inputValue":"2019-07-17 00:00:00.0","link":false},"primaryInternalContact":{"displayValue":"Pamela K Mizuno","inputValue":"Pamela K Mizuno","link":false}}],"version":1.0,"url":"https:\/\/gts-ey-qa\/Passport\/enduser\/listscreens\/show.json?screenName=Matter+List+-+Office"}