{"screen":"Narratives List - OC Matter Management","cacheable":false,"page":{"totalRecords":120,"pageNumber":1,"sortInfo":"narrativeDate,DESCENDING","totalPages":5,"pageSize":25,"filters":""},"list":[{"updatedBy":{"displayValue":"Pamela.Mizuno@ey.com","inputValue":"Pamela.Mizuno@ey.com","link":false},"enteredOn":{"displayValue":"08\/06\/2019","inputValue":"2019-08-06 10:44:45.137","link":false},"collaboration":{"displayValue":"No","inputValue":"false","link":false},"narrative":{"displayValue":"","inputValue":"","link":false},"narrativeDate":{"displayValue":"08\/06\/2019 04:44 AM","inputValue":"2019-08-06 09:44:00.0","link":false},"id":148,"narrativeType":{"displayValue":"Legal Update","inputValue":"3","link":false},"enteredBy":{"displayValue":"Pamela K Mizuno","inputValue":"Pamela K Mizuno","link":false},"updatedAt":{"displayValue":"08\/06\/2019 04:44 AM","inputValue":"2019-08-06 09:44:45.16","link":false}},{"updatedBy":{"displayValue":"pamela.mizuno@ey.com","inputValue":"pamela.mizuno@ey.com","link":false},"enteredOn":{"displayValue":"07\/01\/2019","inputValue":"2019-07-01 05:14:30.13","link":false},"collaboration":{"displayValue":"No","inputValue":"false","link":false},"narrative":{"displayValue":"","inputValue":"","link":false},"narrativeDate":{"displayValue":"07\/17\/2019 05:14 AM","inputValue":"2019-07-17 10:14:00.0","link":false},"id":3,"narrativeType":{"displayValue":"Matter Summary","inputValue":"4","link":false},"enteredBy":{"displayValue":"Pamela K Mizuno","inputValue":"Pamela K Mizuno","link":false},"updatedAt":{"displayValue":"07\/01\/2019 05:14 AM","inputValue":"2019-07-01 10:14:30.157","link":false}},{"updatedBy":{"displayValue":"pamela.mizuno@ey.com","inputValue":"pamela.mizuno@ey.com","link":false},"enteredOn":{"displayValue":"07\/04\/2019","inputValue":"2019-07-04 14:18:46.01","link":false},"collaboration":{"displayValue":"No","inputValue":"false","link":false},"narrative":{"displayValue":"wdwfsdfdsfsd","inputValue":"wdwfsdfdsfsd","link":false},"narrativeDate":{"displayValue":"07\/10\/2019 08:17 AM","inputValue":"2019-07-10 13:17:00.0","link":false},"id":14,"narrativeType":{"displayValue":"Matter Summary","inputValue":"4","link":false},"enteredBy":{"displayValue":"Pamela K Mizuno","inputValue":"Pamela K Mizuno","link":false},"updatedAt":{"displayValue":"07\/08\/2019 12:45 AM","inputValue":"2019-07-08 05:45:21.737","link":false}},{"updatedBy":{"displayValue":"pamela.mizuno@ey.com","inputValue":"pamela.mizuno@ey.com","link":false},"enteredOn":{"displayValue":"07\/10\/2019","inputValue":"2019-07-10 08:07:05.533","link":false},"collaboration":{"displayValue":"No","inputValue":"false","link":false},"narrative":{"displayValue":"Test demo","inputValue":"Test demo","link":false},"narrativeDate":{"displayValue":"07\/10\/2019 02:06 AM","inputValue":"2019-07-10 07:06:00.0","link":false},"id":147,"narrativeType":{"displayValue":"Legal Update","inputValue":"3","link":false},"enteredBy":{"displayValue":"Pamela K Mizuno","inputValue":"Pamela K Mizuno","link":false},"updatedAt":{"displayValue":"07\/10\/2019 02:07 AM","inputValue":"2019-07-10 07:07:05.577","link":false}},{"updatedBy":{"displayValue":"David.Weintraub@ey.com","inputValue":"David.Weintraub@ey.com","link":false},"enteredOn":{"displayValue":"07\/07\/2019","inputValue":"2019-07-07 17:49:52.01","link":false},"collaboration":{"displayValue":"No","inputValue":"false","link":false},"narrative":{"displayValue":"test 9","inputValue":"test 9","link":false},"narrativeDate":{"displayValue":"07\/08\/2019 05:49 PM","inputValue":"2019-07-08 22:49:00.0","link":false},"id":142,"narrativeType":{"displayValue":"Legal Update","inputValue":"3","link":false},"enteredBy":{"displayValue":"David Weintraub","inputValue":"David Weintraub","link":false},"updatedAt":{"displayValue":"07\/07\/2019 05:49 PM","inputValue":"2019-07-07 22:49:52.04","link":false}},{"updatedBy":{"displayValue":"David.Weintraub@ey.com","inputValue":"David.Weintraub@ey.com","link":false},"enteredOn":{"displayValue":"07\/08\/2019","inputValue":"2019-07-08 07:33:42.987","link":false},"collaboration":{"displayValue":"No","inputValue":"false","link":false},"narrative":{"displayValue":"Waiting for call from Defendent","inputValue":"Waiting for call from Defendent","link":false},"narrativeDate":{"displayValue":"07\/08\/2019 07:33 AM","inputValue":"2019-07-08 12:33:00.0","link":false},"id":146,"narrativeType":{"displayValue":"Status","inputValue":"2","link":false},"enteredBy":{"displayValue":"David Weintraub","inputValue":"David Weintraub","link":false},"updatedAt":{"displayValue":"07\/08\/2019 07:33 AM","inputValue":"2019-07-08 12:33:42.987","link":false}},{"updatedBy":{"displayValue":"onkardeep.bhatia@wolterskluwer.com","inputValue":"onkardeep.bhatia@wolterskluwer.com","link":false},"enteredOn":{"displayValue":"07\/08\/2019","inputValue":"2019-07-08 05:07:17.0","link":false},"collaboration":{"displayValue":"No","inputValue":"false","link":false},"narrative":{"displayValue":"ND test","inputValue":"ND test","link":false},"narrativeDate":{"displayValue":"07\/08\/2019 05:07 AM","inputValue":"2019-07-08 10:07:00.0","link":false},"id":145,"narrativeType":{"displayValue":"Legal Update","inputValue":"3","link":false},"enteredBy":{"displayValue":"Onk internal person","inputValue":"Onk internal person","link":false},"updatedAt":{"displayValue":"07\/08\/2019 05:07 AM","inputValue":"2019-07-08 10:07:17.02","link":false}},{"updatedBy":{"displayValue":"pamela.mizuno@ey.com","inputValue":"pamela.mizuno@ey.com","link":false},"enteredOn":{"displayValue":"07\/08\/2019","inputValue":"2019-07-08 07:04:58.18","link":false},"collaboration":{"displayValue":"No","inputValue":"false","link":false},"narrative":{"displayValue":"New Test","inputValue":"New Test","link":false},"narrativeDate":{"displayValue":"07\/08\/2019 01:04 AM","inputValue":"2019-07-08 06:04:00.0","link":false},"id":144,"narrativeType":{"displayValue":"Matter Summary","inputValue":"4","link":false},"enteredBy":{"displayValue":"Pamela K Mizuno","inputValue":"Pamela K Mizuno","link":false},"updatedAt":{"displayValue":"07\/08\/2019 01:04 AM","inputValue":"2019-07-08 06:04:58.203","link":false}},{"updatedBy":{"displayValue":"linda.neuhaeuser@de.ey.com","inputValue":"linda.neuhaeuser@de.ey.com","link":false},"enteredOn":{"displayValue":"07\/07\/2019","inputValue":"2019-07-07 19:53:03.253","link":false},"collaboration":{"displayValue":"No","inputValue":"false","link":false},"narrative":{"displayValue":"Nachpr체fung manuell mit deutschem Betreiber und Geographie Deutschland","inputValue":"Nachpr체fung manuell mit deutschem Betreiber und Geographie Deutschland","link":false},"narrativeDate":{"displayValue":"07\/07\/2019 09:52 PM","inputValue":"2019-07-08 02:52:00.0","link":false},"id":143,"narrativeType":{"displayValue":"Status","inputValue":"2","link":false},"enteredBy":{"displayValue":"Linda   Neuh채user","inputValue":"Linda   Neuh채user","link":false},"updatedAt":{"displayValue":"07\/07\/2019 09:54 PM","inputValue":"2019-07-08 02:54:17.927","link":false}},{"updatedBy":{"displayValue":"David.Weintraub@ey.com","inputValue":"David.Weintraub@ey.com","link":false},"enteredOn":{"displayValue":"07\/07\/2019","inputValue":"2019-07-07 17:49:10.16","link":false},"collaboration":{"displayValue":"No","inputValue":"false","link":false},"narrative":{"displayValue":"test","inputValue":"test","link":false},"narrativeDate":{"displayValue":"07\/07\/2019 05:49 PM","inputValue":"2019-07-07 22:49:00.0","link":false},"id":136,"narrativeType":{"displayValue":"Legal Update","inputValue":"3","link":false},"enteredBy":{"displayValue":"David Weintraub","inputValue":"David Weintraub","link":false},"updatedAt":{"displayValue":"07\/07\/2019 05:49 PM","inputValue":"2019-07-07 22:49:10.197","link":false}},{"updatedBy":{"displayValue":"David.Weintraub@ey.com","inputValue":"David.Weintraub@ey.com","link":false},"enteredOn":{"displayValue":"07\/07\/2019","inputValue":"2019-07-07 17:49:16.44","link":false},"collaboration":{"displayValue":"No","inputValue":"false","link":false},"narrative":{"displayValue":"test test","inputValue":"test test","link":false},"narrativeDate":{"displayValue":"07\/07\/2019 05:49 PM","inputValue":"2019-07-07 22:49:00.0","link":false},"id":137,"narrativeType":{"displayValue":"Matter Summary","inputValue":"4","link":false},"enteredBy":{"displayValue":"David Weintraub","inputValue":"David Weintraub","link":false},"updatedAt":{"displayValue":"07\/07\/2019 05:49 PM","inputValue":"2019-07-07 22:49:16.467","link":false}},{"updatedBy":{"displayValue":"David.Weintraub@ey.com","inputValue":"David.Weintraub@ey.com","link":false},"enteredOn":{"displayValue":"07\/07\/2019","inputValue":"2019-07-07 17:49:24.19","link":false},"collaboration":{"displayValue":"No","inputValue":"false","link":false},"narrative":{"displayValue":"test note","inputValue":"test note","link":false},"narrativeDate":{"displayValue":"07\/07\/2019 05:49 PM","inputValue":"2019-07-07 22:49:00.0","link":false},"id":138,"narrativeType":{"displayValue":"Note","inputValue":"1","link":false},"enteredBy":{"displayValue":"David Weintraub","inputValue":"David Weintraub","link":false},"updatedAt":{"displayValue":"07\/07\/2019 05:49 PM","inputValue":"2019-07-07 22:49:24.19","link":false}},{"updatedBy":{"displayValue":"David.Weintraub@ey.com","inputValue":"David.Weintraub@ey.com","link":false},"enteredOn":{"displayValue":"07\/07\/2019","inputValue":"2019-07-07 17:49:32.397","link":false},"collaboration":{"displayValue":"No","inputValue":"false","link":false},"narrative":{"displayValue":"test status","inputValue":"test status","link":false},"narrativeDate":{"displayValue":"07\/07\/2019 05:49 PM","inputValue":"2019-07-07 22:49:00.0","link":false},"id":139,"narrativeType":{"displayValue":"Status","inputValue":"2","link":false},"enteredBy":{"displayValue":"David Weintraub","inputValue":"David Weintraub","link":false},"updatedAt":{"displayValue":"07\/07\/2019 05:49 PM","inputValue":"2019-07-07 22:49:32.397","link":false}},{"updatedBy":{"displayValue":"admin","inputValue":"admin","link":false},"enteredOn":{"displayValue":"07\/06\/2019","inputValue":"2019-07-06 03:37:43.317","link":false},"collaboration":{"displayValue":"No","inputValue":"false","link":false},"narrative":{"displayValue":"","inputValue":"","link":false},"narrativeDate":{"displayValue":"07\/06\/2019 03:37 AM","inputValue":"2019-07-06 08:37:00.0","link":false},"id":135,"narrativeType":{"displayValue":"Note","inputValue":"1","link":false},"enteredBy":{"displayValue":"Passport Admin","inputValue":"Passport Admin","link":false},"updatedAt":{"displayValue":"07\/06\/2019 03:37 AM","inputValue":"2019-07-06 08:37:43.317","link":false}},{"updatedBy":{"displayValue":"admin","inputValue":"admin","link":false},"enteredOn":{"displayValue":"07\/06\/2019","inputValue":"2019-07-06 03:34:44.93","link":false},"collaboration":{"displayValue":"No","inputValue":"false","link":false},"narrative":{"displayValue":"","inputValue":"","link":false},"narrativeDate":{"displayValue":"07\/06\/2019 03:34 AM","inputValue":"2019-07-06 08:34:00.0","link":false},"id":134,"narrativeType":{"displayValue":"Note","inputValue":"1","link":false},"enteredBy":{"displayValue":"Passport Admin","inputValue":"Passport Admin","link":false},"updatedAt":{"displayValue":"07\/06\/2019 03:34 AM","inputValue":"2019-07-06 08:34:44.933","link":false}},{"updatedBy":{"displayValue":"admin","inputValue":"admin","link":false},"enteredOn":{"displayValue":"07\/06\/2019","inputValue":"2019-07-06 03:31:55.003","link":false},"collaboration":{"displayValue":"No","inputValue":"false","link":false},"narrative":{"displayValue":"","inputValue":"","link":false},"narrativeDate":{"displayValue":"07\/06\/2019 03:31 AM","inputValue":"2019-07-06 08:31:00.0","link":false},"id":133,"narrativeType":{"displayValue":"Note","inputValue":"1","link":false},"enteredBy":{"displayValue":"Passport Admin","inputValue":"Passport Admin","link":false},"updatedAt":{"displayValue":"07\/06\/2019 03:31 AM","inputValue":"2019-07-06 08:31:55.007","link":false}},{"updatedBy":{"displayValue":"admin","inputValue":"admin","link":false},"enteredOn":{"displayValue":"07\/06\/2019","inputValue":"2019-07-06 03:28:59.76","link":false},"collaboration":{"displayValue":"No","inputValue":"false","link":false},"narrative":{"displayValue":"","inputValue":"","link":false},"narrativeDate":{"displayValue":"07\/06\/2019 03:28 AM","inputValue":"2019-07-06 08:28:00.0","link":false},"id":132,"narrativeType":{"displayValue":"Note","inputValue":"1","link":false},"enteredBy":{"displayValue":"Passport Admin","inputValue":"Passport Admin","link":false},"updatedAt":{"displayValue":"07\/06\/2019 03:28 AM","inputValue":"2019-07-06 08:28:59.76","link":false}},{"updatedBy":{"displayValue":"admin","inputValue":"admin","link":false},"enteredOn":{"displayValue":"07\/06\/2019","inputValue":"2019-07-06 03:26:06.633","link":false},"collaboration":{"displayValue":"No","inputValue":"false","link":false},"narrative":{"displayValue":"","inputValue":"","link":false},"narrativeDate":{"displayValue":"07\/06\/2019 03:26 AM","inputValue":"2019-07-06 08:26:00.0","link":false},"id":131,"narrativeType":{"displayValue":"Note","inputValue":"1","link":false},"enteredBy":{"displayValue":"Passport Admin","inputValue":"Passport Admin","link":false},"updatedAt":{"displayValue":"07\/06\/2019 03:26 AM","inputValue":"2019-07-06 08:26:06.67","link":false}},{"updatedBy":{"displayValue":"Pamela.Mizuno@ey.com","inputValue":"Pamela.Mizuno@ey.com","link":false},"enteredOn":{"displayValue":"07\/06\/2019","inputValue":"2019-07-06 07:10:13.37","link":false},"collaboration":{"displayValue":"No","inputValue":"false","link":false},"narrative":{"displayValue":"","inputValue":"","link":false},"narrativeDate":{"displayValue":"07\/06\/2019 01:10 AM","inputValue":"2019-07-06 06:10:00.0","link":false},"id":128,"narrativeType":{"displayValue":"Note","inputValue":"1","link":false},"enteredBy":{"displayValue":"Pamela K Mizuno","inputValue":"Pamela K Mizuno","link":false},"updatedAt":{"displayValue":"07\/06\/2019 01:10 AM","inputValue":"2019-07-06 06:10:13.393","link":false}},{"updatedBy":{"displayValue":"Pamela.Mizuno@ey.com","inputValue":"Pamela.Mizuno@ey.com","link":false},"enteredOn":{"displayValue":"07\/06\/2019","inputValue":"2019-07-06 07:10:20.707","link":false},"collaboration":{"displayValue":"No","inputValue":"false","link":false},"narrative":{"displayValue":"","inputValue":"","link":false},"narrativeDate":{"displayValue":"07\/06\/2019 01:10 AM","inputValue":"2019-07-06 06:10:00.0","link":false},"id":129,"narrativeType":{"displayValue":"Status","inputValue":"2","link":false},"enteredBy":{"displayValue":"Pamela K Mizuno","inputValue":"Pamela K Mizuno","link":false},"updatedAt":{"displayValue":"07\/06\/2019 01:10 AM","inputValue":"2019-07-06 06:10:20.707","link":false}},{"updatedBy":{"displayValue":"Pamela.Mizuno@ey.com","inputValue":"Pamela.Mizuno@ey.com","link":false},"enteredOn":{"displayValue":"07\/06\/2019","inputValue":"2019-07-06 07:08:52.357","link":false},"collaboration":{"displayValue":"No","inputValue":"false","link":false},"narrative":{"displayValue":"","inputValue":"","link":false},"narrativeDate":{"displayValue":"07\/06\/2019 01:08 AM","inputValue":"2019-07-06 06:08:00.0","link":false},"id":127,"narrativeType":{"displayValue":"Matter Summary","inputValue":"4","link":false},"enteredBy":{"displayValue":"Pamela K Mizuno","inputValue":"Pamela K Mizuno","link":false},"updatedAt":{"displayValue":"07\/06\/2019 01:08 AM","inputValue":"2019-07-06 06:08:52.38","link":false}},{"updatedBy":{"displayValue":"Joowon.Park@ey.com","inputValue":"Joowon.Park@ey.com","link":false},"enteredOn":{"displayValue":"07\/05\/2019","inputValue":"2019-07-05 16:37:49.54","link":false},"collaboration":{"displayValue":"No","inputValue":"false","link":false},"narrative":{"displayValue":"","inputValue":"","link":false},"narrativeDate":{"displayValue":"07\/05\/2019 04:37 PM","inputValue":"2019-07-05 21:37:00.0","link":false},"id":126,"narrativeType":{"displayValue":"Legal Update","inputValue":"3","link":false},"enteredBy":{"displayValue":"Joowon   Park","inputValue":"Joowon   Park","link":false},"updatedAt":{"displayValue":"07\/05\/2019 04:37 PM","inputValue":"2019-07-05 21:37:49.543","link":false}},{"updatedBy":{"displayValue":"kshergill@uk.ey.com","inputValue":"kshergill@uk.ey.com","link":false},"enteredOn":{"displayValue":"07\/05\/2019","inputValue":"2019-07-05 10:21:46.213","link":false},"collaboration":{"displayValue":"No","inputValue":"false","link":false},"narrative":{"displayValue":"OC Smoke Test regression in gts-ey-qa in progress. expect to be finished by EOB 7\/5\n-----\ntry to avoid weekend work","inputValue":"OC Smoke Test regression in gts-ey-qa in progress. expect to be finished by EOB 7\/5\n-----\ntry to avoid weekend work","link":false},"narrativeDate":{"displayValue":"07\/05\/2019 10:20 AM","inputValue":"2019-07-05 15:20:00.0","link":false},"id":124,"narrativeType":{"displayValue":"Status","inputValue":"2","link":false},"enteredBy":{"displayValue":"Kiran Kaur Shergill","inputValue":"Kiran Kaur Shergill","link":false},"updatedAt":{"displayValue":"07\/05\/2019 10:24 AM","inputValue":"2019-07-05 15:24:45.347","link":false}},{"updatedBy":{"displayValue":"pamela.mizuno@ey.com","inputValue":"pamela.mizuno@ey.com","link":false},"enteredOn":{"displayValue":"07\/05\/2019","inputValue":"2019-07-05 11:48:21.387","link":false},"collaboration":{"displayValue":"No","inputValue":"false","link":false},"narrative":{"displayValue":"Demo\/\/\/\/\/\/\/\/\/\/\/\/\/\/","inputValue":"Demo\/\/\/\/\/\/\/\/\/\/\/\/\/\/","link":false},"narrativeDate":{"displayValue":"07\/05\/2019 05:48 AM","inputValue":"2019-07-05 10:48:00.0","link":false},"id":121,"narrativeType":{"displayValue":"Legal Update","inputValue":"3","link":false},"enteredBy":{"displayValue":"Pamela K Mizuno","inputValue":"Pamela K Mizuno","link":false},"updatedAt":{"displayValue":"07\/05\/2019 05:48 AM","inputValue":"2019-07-05 10:48:21.393","link":false}},{"updatedBy":{"displayValue":"pamela.mizuno@ey.com","inputValue":"pamela.mizuno@ey.com","link":false},"enteredOn":{"displayValue":"07\/05\/2019","inputValue":"2019-07-05 11:48:32.82","link":false},"collaboration":{"displayValue":"No","inputValue":"false","link":false},"narrative":{"displayValue":"qwerty","inputValue":"qwerty","link":false},"narrativeDate":{"displayValue":"07\/05\/2019 05:48 AM","inputValue":"2019-07-05 10:48:00.0","link":false},"id":122,"narrativeType":{"displayValue":"Note","inputValue":"1","link":false},"enteredBy":{"displayValue":"Pamela K Mizuno","inputValue":"Pamela K Mizuno","link":false},"updatedAt":{"displayValue":"07\/05\/2019 05:48 AM","inputValue":"2019-07-05 10:48:32.823","link":false}}],"version":1.0,"url":"https:\/\/gts-ey-qa\/Passport\/enduser\/listscreens\/show.json?screenName=Narratives+List+-+OC+Matter+Management"}